<svg width="18" height="18" viewBox="0 0 18 18" fill="none" xmlns="http://www.w3.org/2000/svg">
<path d="M17.4367 8.10938H3.72337L11.9312 0.984375C12.0624 0.869531 11.9827 0.65625 11.8093 0.65625H9.73509C9.64368 0.65625 9.55696 0.689062 9.489 0.747656L0.631965 8.43281C0.550844 8.50313 0.485786 8.59006 0.441199 8.68772C0.396611 8.78537 0.373535 8.89147 0.373535 8.99883C0.373535 9.10618 0.396611 9.21228 0.441199 9.30994C0.485786 9.4076 0.550844 9.49453 0.631965 9.56484L9.54056 17.2969C9.57571 17.3273 9.6179 17.3438 9.66243 17.3438H11.807C11.9804 17.3438 12.0601 17.1281 11.9288 17.0156L3.72337 9.89062H17.4367C17.5398 9.89062 17.6242 9.80625 17.6242 9.70312V8.29688C17.6242 8.19375 17.5398 8.10938 17.4367 8.10938Z" fill="#262626"/>
</svg>
